﻿{
  "$schema": "https://json.schemastore.org/launchsettings.json",
  "iisSettings": {
    "windowsAuthentication": false,
    "anonymousAuthentication": true,
    "iisExpress": {
      "applicationUrl": "http://localhost:13295",
      "sslPort": 44365
    }
  },
  "profiles": {
    "WebApplication3": {
      "commandName": "Project",
      "dotnetRunMessages": true,
      "launchBrowser": true,
      //"launchUrl": "swagger",
      "launchUrl": "api/user",
      "applicationUrl": "https://localhost:7244;http://localhost:5132",
      "environmentVariables": {
        "ASPNETCORE_ENVIRONMENT": "Development"
      }
    },
    "IIS Express": {
      "commandName": "IISExpress",
      "launchBrowser": true,
      //"launchUrl": "swagger",
      "launchUrl": "api/user",
      "environmentVariables": {
        "ASPNETCORE_ENVIRONMENT": "Development"
      }
    }
  }
}
